workflow
…
## Warning in sim_market(corr_4, k = 1000, marginal_dist = "norm",
## marginal_dist_model = list(mu = -10, : you have double set the mean and sd
## moments: to fix set marginal_dist_model = list(mu = 0, sd = 1). These moments
## are better set in ts_model, see mu and omega

m1 %>% group_by(Asset) %>%
    mutate(mean = mean(Return), sd = sd(Return))

## # A tibble: 50,000 x 5
## # Groups:   Asset [50]
##    date       Asset    Return  mean    sd
##    <date>     <glue>    <dbl> <dbl> <dbl>
##  1 2021-02-01 Asset_1   -67.8 -10.5  19.2
##  2 2021-02-01 Asset_2   -66.6 -10.8  19.1
##  3 2021-02-01 Asset_3   -63.1 -10.6  19.0
##  4 2021-02-01 Asset_4   -40.7 -10.6  19.4
##  5 2021-02-01 Asset_5   -65.1 -10.5  19.2
##  6 2021-02-01 Asset_6   -56.0 -10.5  19.6
##  7 2021-02-01 Asset_7   -53.5 -10.9  19.6
##  8 2021-02-01 Asset_8   -64.4 -11.2  19.9
##  9 2021-02-01 Asset_9   -34.0 -10.6  19.8
## 10 2021-02-01 Asset_10  -47.9 -10.6  19.6
## # ... with 49,990 more rows
…
## Warning in if (marginal_dist_model$mu != 0 | marginal_dist_model$sd != 1 & : the
## condition has length > 1 and only the first element will be used

## Warning in sim_market(corr_4, k = 1000, marginal_dist = "norm",
## marginal_dist_model = list(mu = 1:50, : you have double set the mean and sd
## moments: to fix set marginal_dist_model = list(mu = 0, sd = 1). These moments
## are better set in ts_model, see mu and omega

m2 %>% group_by(Asset) %>%
    mutate(mean = mean(Return), sd = sd(Return))

## # A tibble: 50,000 x 5
## # Groups:   Asset [50]
##    date       Asset    Return   mean    sd
##    <date>     <glue>    <dbl>  <dbl> <dbl>
##  1 2021-02-01 Asset_1    1.07  0.989  1.00
##  2 2021-02-01 Asset_2    3.74  1.96   1.95
##  3 2021-02-01 Asset_3    5.24  3.02   3.02
##  4 2021-02-01 Asset_4   10.6   4.09   4.05
##  5 2021-02-01 Asset_5    5.24  4.98   5.05
##  6 2021-02-01 Asset_6   16.6   5.98   6.04
##  7 2021-02-01 Asset_7   17.1   6.90   7.01
##  8 2021-02-01 Asset_8    8.30  8.06   7.84
##  9 2021-02-01 Asset_9   21.7   8.99   8.96
## 10 2021-02-01 Asset_10  23.3  10.1   10.0 
## # ... with 49,990 more rows
…
## Warning in if (marginal_dist_model$mu != 0 | marginal_dist_model$sd != 1 & : the
## condition has length > 1 and only the first element will be used

## Warning in sim_market(corr_4, k = 1000, marginal_dist = "norm",
## marginal_dist_model = list(mu = 1, : you have double set the mean and sd
## moments: to fix set marginal_dist_model = list(mu = 0, sd = 1). These moments
## are better set in ts_model, see mu and omega

m3 %>% group_by(Asset) %>%
    mutate(mean = mean(Return), sd = sd(Return))

## # A tibble: 50,000 x 5
## # Groups:   Asset [50]
##    date       Asset    Return  mean    sd
##    <date>     <glue>    <dbl> <dbl> <dbl>
##  1 2021-02-01 Asset_1   0.860 1.00   1.01
##  2 2021-02-01 Asset_2   2.00  1.04   1.97
##  3 2021-02-01 Asset_3   0.813 1.00   3.04
##  4 2021-02-01 Asset_4   1.39  0.912  4.04
##  5 2021-02-01 Asset_5   0.774 1.01   4.88
##  6 2021-02-01 Asset_6   2.65  0.918  6.00
##  7 2021-02-01 Asset_7   3.97  1.05   7.14
##  8 2021-02-01 Asset_8   5.48  0.807  8.02
##  9 2021-02-01 Asset_9   1.09  0.747  8.92
## 10 2021-02-01 Asset_10  1.78  1.12  10.2 
## # ... with 49,990 more rows
…
